{
  "Version": "1.0",
  "IdentityManager": {
    "Default": {}
  },
  "CredentialsProvider": {
    "CognitoIdentity": {
      "Default": {
        "PoolId": "",
        "Region": ""
      }
    }
  },
  "S3TransferUtility": {
    "Default": {
      "Bucket": "",
      "Region": ""
    }
  }
}